{
  "kind": "collectionType",
  "collectionName": "home-banner",
  "info": {
    "name": "home-banner",
    "description": ""
  },
  "options": {
    "increments": true,
    "timestamps": true,
    "draftAndPublish": true
  },
  "attributes": {
    "title": {
      "type": "string",
      "unique": true
    },
    "description": {
      "type": "text",
      "required": true
    },
    "content": {
      "type": "text",
      "required": true
    },
    "backgroundImg": {
      "collection": "file",
      "via": "related",
      "allowedTypes": [
        "images"
      ],
      "plugin": "upload",
      "required": true
    }
  }
}
